Week 3. Mobility, Migration and Health – Global Health and Demography
…
Originally developed by Guy J. Abel and included in the migest R package. Source tutorial and original chord-diagram example: https://guyabel.com/post/animated-directional-chord-diagrams/

See also:

https://guyabel.com/post/global-migrant-chord-diagrams/

Abel, G.J. (2018). R code for animated directional chord diagrams using global migration flow estimates.

d0 <- read_csv(
  system.file("imr", "reg_flow.csv", package = "migest")
)

d0

# A tibble: 891 × 4
   year0 orig_reg     dest_reg                         flow
   <dbl> <chr>        <chr>                           <dbl>
 1  1960 Africa       Africa                        1377791
 2  1960 Africa       Eastern Asia                     5952
 3  1960 Africa       Eastern Europe & Central Asia    7303
 4  1960 Africa       Europe                         919252
 5  1960 Africa       Latin America & Caribbean       15796
 6  1960 Africa       Northern America                82463
 7  1960 Africa       Oceania                         32825
 8  1960 Africa       Southern Asia                   35603
 9  1960 Africa       Western Asia                   106580
10  1960 Eastern Asia Africa                          37301
# ℹ 881 more rows
…
Recover origin and destination region names from corridor label

d2 <- d2 %>%
  separate(
    col = .group,
    into = c("orig_reg", "dest_reg"),
    sep = " -> "
  ) %>%
  select(orig_reg, dest_reg, flow, everything()) %>%
  mutate(flow = flow / 1e06)   # convert to millions

d2

# A tibble: 8,181 × 5
   orig_reg     dest_reg                         flow year0 .frame
   <chr>        <chr>                           <dbl> <dbl>  <int>
 1 Africa       Africa                        1.38     1960      0
 2 Africa       Eastern Asia                  0.00595  1960      0
 3 Africa       Eastern Europe & Central Asia 0.00730  1960      0
 4 Africa       Europe                        0.919    1960      0
 5 Africa       Latin America & Caribbean     0.0158   1960      0
 6 Africa       Northern America              0.0825   1960      0
 7 Africa       Oceania                       0.0328   1960      0
 8 Africa       Southern Asia                 0.0356   1960      0
 9 Africa       Western Asia                  0.107    1960      0
10 Eastern Asia Africa                        0.0373   1960      0
# ℹ 8,171 more rows
…
image_write(
  animation,
  path = "./figure/global_migration_chord.gif"
)

View animation in R

print(animation)

# A tibble: 100 × 7
   format width height colorspace matte filesize density
   <chr>  <int>  <int> <chr>      <lgl>    <int> <chr>  
 1 gif      600    600 sRGB       TRUE         0 72x72  
 2 gif      473    473 sRGB       TRUE         0 72x72  
 3 gif      473    473 sRGB       TRUE         0 72x72  
 4 gif      473    473 sRGB       TRUE         0 72x72  
 5 gif      473    473 sRGB       TRUE         0 72x72  
 6 gif      474    473 sRGB       TRUE         0 72x72  
 7 gif      473    473 sRGB       TRUE         0 72x72  
 8 gif      474    473 sRGB       TRUE         0 72x72  
 9 gif      473    473 sRGB       TRUE         0 72x72  
10 gif      474    473 sRGB       TRUE         0 72x72  
# ℹ 90 more rows
…
